===============================================================================
                    GOALS & CONVERSION TRACKING SYSTEM
                         Complete Documentation Guide
===============================================================================

📖 TABLE OF CONTENTS
====================
0. SIMPLE EXPLANATION (START HERE)
1. OVERVIEW & PURPOSE
2. WHAT THIS SYSTEM DOES
3. HOW TO USE THE GOALS SYSTEM
4. WHEN IT WORKS & REQUIREMENTS
5. GOAL TYPES EXPLAINED
6. CONVERSION TRACKING MECHANICS
7. API ENDPOINTS REFERENCE
8. FRONTEND FEATURES
9. TECHNICAL IMPLEMENTATION
10. TROUBLESHOOTING & FAQ
11. BUSINESS VALUE & USE CASES
12. FUTURE ENHANCEMENTS

===============================================================================

🚀 0. SIMPLE EXPLANATION (START HERE)
=====================================

### What Are Goals?
Goals are specific actions you want visitors to take on your website (like filling a contact form, downloading your resume, or spending time reading your projects).

### What Does "Value" Mean?
The "value" is a dollar amount you assign to each goal to measure its worth to your business. For example:
- Contact form submission = $100 (potential client inquiry)
- Resume download = $50 (someone interested in hiring you)
- Project demo click = $25 (showing interest in your work)

**Important: This is just for YOUR tracking - visitors don't see this money and don't pay anything!**

### Who Gets This Value?
**Nobody actually gets paid this money!** The "value" is just a number YOU use to:
- Track how much your website is helping your business
- Calculate ROI (return on investment) for your marketing efforts  
- See which goals are most valuable to your career/business
- Measure your website's success in dollar terms

It's like keeping score in a game - the points help you see how well you're doing!

### What Do Goals Do?
Goals help you understand:
- Which parts of your website work best
- How many visitors become potential clients
- Which projects get the most attention
- If your website is helping your career/business grow

Think of it like a scorecard for your website's success!

===============================================================================

🎯 1. OVERVIEW & PURPOSE
========================

The Goals & Conversion Tracking system is a comprehensive analytics feature that allows 
website owners to define, track, and measure specific user actions as "conversions" 
or "goals." This system transforms raw website traffic data into meaningful business 
insights by tracking when users complete desired actions.

**Primary Purpose:**
- Define what constitutes a successful user interaction (goal)
- Track when these goals are completed (conversions)
- Measure conversion rates and ROI
- Provide actionable insights for business optimization

**Business Impact:**
- Measure website effectiveness
- Optimize marketing campaigns
- Improve user experience
- Calculate return on investment (ROI)
- Make data-driven business decisions

===============================================================================

🔧 2. WHAT THIS SYSTEM DOES
===========================

### Core Functionality:

**Goal Management:**
✅ Create custom goals for specific user actions
✅ Edit and update existing goals
✅ Enable/disable goals without deleting data
✅ Set monetary values for conversion tracking
✅ Organize goals by website

**Conversion Tracking:**
✅ Automatically detect when goals are completed
✅ Record conversion data with timestamps
✅ Track user sessions and attribution
✅ Calculate conversion rates in real-time
✅ Store conversion values for ROI analysis

**Analytics & Reporting:**
✅ Real-time conversion rate calculation
✅ Total conversions count
✅ Conversion value tracking
✅ Session-based conversion attribution
✅ Historical conversion data
✅ Detailed conversion records with pagination

**Data Management:**
✅ Multi-website support
✅ User-specific goal management
✅ Secure data storage with PostgreSQL
✅ RESTful API for all operations
✅ Real-time updates and synchronization

===============================================================================

📱 3. HOW TO USE THE GOALS SYSTEM
=================================

### Step 1: Access the Goals Page
1. Log into your Analytics Dashboard
2. Click "Goals" in the sidebar navigation (🎯 icon)
3. Select your website from the dropdown if you have multiple sites

### Step 2: Create Your First Goal
1. Click the "Create Goal" button
2. Fill in the goal details:
   - **Goal Name**: Descriptive name (e.g., "Purchase Completed")
   - **Description**: Optional details about what this goal measures
   - **Goal Type**: Choose from 5 available types (see Goal Types section)
   - **Conditions**: Set specific criteria for the goal
   - **Value**: Set monetary value (optional, for ROI tracking)

### Step 3: Configure Goal Conditions
**For URL Destination Goals:**
- Enter the target URL (e.g., "/thank-you")
- Choose match type: Contains, Equals, Starts with, Ends with

**For Event Tracking Goals:**
- Select event type: Click, Form Submit, Page View, Custom
- Provide additional event data if needed

**For Page Duration Goals:**
- Set minimum time in seconds (e.g., 60 for 1 minute)

**For Form Submit Goals:**
- Specify form ID or CSS selector
- Optional: Add form field requirements

**For Click Goals:**
- Provide CSS selector or element ID
- Specify which element clicks to track

### Step 4: Monitor Conversions
1. View real-time conversion stats on the Goals page
2. Click the chart icon (📊) on any goal card to view detailed conversions
3. Review conversion data including:
   - Individual conversion records
   - User information
   - Conversion timestamps
   - Page URLs where conversions occurred
   - Conversion values

### Step 5: Analyze Performance
- Monitor conversion rates over time
- Compare goal performance
- Identify top-performing pages
- Calculate ROI from conversion values
- Export data for further analysis

===============================================================================

⚡ 4. WHEN IT WORKS & REQUIREMENTS
==================================

### System Requirements:

**Backend Requirements:**
✅ Node.js server running
✅ PostgreSQL database connected
✅ Goals API endpoints active
✅ Website tracking script installed

**Frontend Requirements:**
✅ Next.js dashboard application
✅ User authentication active
✅ Website(s) registered in system
✅ Tracking script embedded on target website

**Tracking Script Requirements:**
✅ JavaScript tracking code installed on website
✅ Proper website_id configuration
✅ Network connectivity to analytics server
✅ Browser JavaScript enabled

### When Goals Start Working:

**Immediate (Real-time):**
- Goal creation and management
- Goal editing and deletion
- Conversion rate calculations
- Dashboard updates

**After Tracking Script Installation:**
- Conversion detection and recording
- User session tracking
- Page view monitoring
- Event tracking

**Data Collection Timeline:**
- Conversions: Recorded instantly when criteria met
- Analytics: Updated in real-time
- Historical data: Available immediately after first conversion

### Browser Compatibility:
✅ Chrome (all modern versions)
✅ Firefox (all modern versions)
✅ Safari (all modern versions)
✅ Edge (all modern versions)
✅ Mobile browsers (iOS Safari, Chrome Mobile)

===============================================================================

🎲 5. GOAL TYPES EXPLAINED
===========================

### 1. URL Destination Goals
**Purpose:** Track when users reach specific pages
**Best For:** Thank you pages, purchase confirmations, download completions
**Example:** User reaches "/checkout/success" after making a purchase

**Configuration:**
```
Goal Type: URL Destination
Target URL: /thank-you
Match Type: Contains
Value: $50 (average order value)
```

**Use Cases:**
- E-commerce purchase tracking
- Newsletter signup confirmations
- Download completion pages
- Contact form submissions
- Account registration success

### 2. Event Tracking Goals
**Purpose:** Track specific user interactions or custom events
**Best For:** Button clicks, video plays, file downloads, custom actions
**Example:** User clicks "Add to Cart" button

**Configuration:**
```
Goal Type: Event Tracking
Event Type: Click
Element Selector: .add-to-cart-btn
Value: $0 (lead generation)
```

**Use Cases:**
- Button click tracking
- Video engagement
- File download tracking
- Social media shares
- Custom JavaScript events

### 3. Page Duration Goals
**Purpose:** Track users who spend minimum time on a page
**Best For:** Content engagement, blog reading, product page views
**Example:** User spends at least 2 minutes reading a blog post

**Configuration:**
```
Goal Type: Page Duration
Minimum Duration: 120 seconds
Target Pages: /blog/*
Value: $5 (engagement value)
```

**Use Cases:**
- Content engagement measurement
- Product interest tracking
- Educational content consumption
- Landing page effectiveness
- User attention measurement

### 4. Form Submit Goals
**Purpose:** Track form submissions across your website
**Best For:** Contact forms, lead generation, surveys, applications
**Example:** User submits contact form

**Configuration:**
```
Goal Type: Form Submit
Form Selector: #contact-form
Required Fields: email, message
Value: $25 (lead value)
```

**Use Cases:**
- Lead generation tracking
- Contact form submissions
- Newsletter signups
- Survey completions
- Application submissions

### 5. Click Goals
**Purpose:** Track clicks on specific elements
**Best For:** CTA buttons, links, interactive elements
**Example:** User clicks "Request Demo" button

**Configuration:**
```
Goal Type: Click
Element Selector: .demo-request-btn
Value: $100 (high-value lead)
```

**Use Cases:**
- Call-to-action effectiveness
- Navigation tracking
- Feature usage
- External link clicks
- Interactive element engagement

===============================================================================

📊 6. CONVERSION TRACKING MECHANICS
===================================

### How Conversions Are Detected:

**1. Real-time Monitoring:**
- Tracking script continuously monitors user behavior
- JavaScript events trigger when goal conditions are met
- Data is immediately sent to analytics server

**2. Condition Matching:**
- System checks current page URL against URL destination goals
- Event listeners detect clicks, form submissions, etc.
- Timers track page duration for time-based goals

**3. Data Recording:**
- Conversion data stored in PostgreSQL database
- User session information captured
- Timestamp and page context recorded
- Attribution data preserved

**4. Deduplication:**
- System prevents duplicate conversions within same session
- Configurable cooldown periods for repeat conversions
- Unique conversion tracking per user session

### Conversion Data Structure:
```json
{
  "id": "conv_12345",
  "goal_id": "goal_67890",
  "session_id": "sess_abcdef",
  "user_id": "user_123",
  "page_url": "https://example.com/product",
  "timestamp": "2025-10-25T14:30:00Z",
  "value": 50.00,
  "metadata": {
    "referrer": "https://google.com",
    "user_agent": "Chrome/118.0.0.0",
    "ip_address": "192.168.1.1"
  }
}
```

### Attribution Models:
- **First-touch:** Credit first page visit
- **Last-touch:** Credit final page before conversion
- **Session-based:** Credit entire session journey
- **Direct:** Credit specific page where conversion occurred

===============================================================================

🔌 7. API ENDPOINTS REFERENCE
==============================

### Goal Management APIs:

**Create Goal**
```
POST /api/dashboard/goals
Content-Type: application/json
Authorization: Bearer <token>

Body:
{
  "website_id": "site_123",
  "name": "Purchase Completed",
  "description": "Tracks successful purchases",
  "goal_type": "url_destination",
  "conditions": {
    "url": "/thank-you",
    "match_type": "contains"
  },
  "value": 50.00,
  "is_active": true
}
```

**Get All Goals**
```
GET /api/dashboard/goals?website_id=site_123
Authorization: Bearer <token>
```

**Update Goal**
```
PUT /api/dashboard/goals/:id
Content-Type: application/json
Authorization: Bearer <token>

Body: {goal data to update}
```

**Delete Goal**
```
DELETE /api/dashboard/goals/:id
Authorization: Bearer <token>
```

### Conversion Tracking APIs:

**Get Goal Conversions**
```
GET /api/dashboard/goals/:id/conversions?page=1&limit=50
Authorization: Bearer <token>
```

**Record Conversion (Internal)**
```
POST /api/collect/conversion
Content-Type: application/json

Body:
{
  "website_id": "site_123",
  "goal_id": "goal_456",
  "session_id": "sess_789",
  "page_url": "https://example.com/thank-you",
  "value": 50.00
}
```

**Get Conversion Analytics**
```
GET /api/dashboard/analytics/conversion-rates?website_id=site_123&start_date=2025-10-01&end_date=2025-10-25
Authorization: Bearer <token>
```

### Response Formats:

**Goals List Response:**
```json
{
  "success": true,
  "goals": [
    {
      "id": "goal_123",
      "name": "Purchase Completed",
      "goal_type": "url_destination",
      "conditions": {...},
      "value": 50.00,
      "is_active": true,
      "created_at": "2025-10-01T10:00:00Z"
    }
  ],
  "total": 5
}
```

**Conversion Data Response:**
```json
{
  "success": true,
  "conversions": [
    {
      "id": "conv_123",
      "goal_id": "goal_456",
      "session_id": "sess_789",
      "timestamp": "2025-10-25T14:30:00Z",
      "page_url": "https://example.com/thank-you",
      "value": 50.00,
      "user_data": {...}
    }
  ],
  "pagination": {
    "page": 1,
    "limit": 50,
    "total": 147,
    "pages": 3
  },
  "stats": {
    "total_conversions": 147,
    "total_value": 7350.00,
    "conversion_rate": 3.2,
    "average_value": 50.00
  }
}
```

===============================================================================

💻 8. FRONTEND FEATURES
=======================

### Goals Management Interface:

**Main Goals Page (`/goals`):**
- Website selector dropdown
- "Create Goal" button
- Goal cards grid layout
- Real-time conversion statistics
- Goal action buttons (View, Edit, Delete)

**Goal Cards Display:**
- Goal name and description
- Goal type and conditions
- Active/inactive status
- Conversion statistics (count, rate, value, sessions)
- Action buttons with icons

**Create/Edit Goal Modal:**
- Form with validation
- Dynamic condition fields based on goal type
- Value input for monetary tracking
- Save/Cancel actions

**Delete Confirmation Modal:**
- Warning message
- Confirm/Cancel options
- Data preservation notice

### Conversion Viewing Interface:

**Goal Conversions Page (`/goal-conversions`):**
- Conversion statistics summary
- Paginated conversion records table
- Individual conversion details
- Navigation back to goals
- Export functionality (future)

**Conversion Table Columns:**
- Timestamp
- Session ID
- Page URL
- Conversion Value
- User Information

**Responsive Design:**
- Mobile-friendly layout
- Adaptive grid columns
- Touch-optimized buttons
- Collapsible table on small screens

### UI/UX Features:

**Design System:**
- Dark theme with sharp corners
- Consistent color scheme
- Professional typography
- Accessible contrast ratios

**Interactive Elements:**
- Hover effects on cards and buttons
- Loading states during API calls
- Error handling with user feedback
- Success notifications

**Navigation:**
- Sidebar integration
- Breadcrumb navigation
- Quick action buttons
- Keyboard shortcuts (future)

===============================================================================

⚙️ 9. TECHNICAL IMPLEMENTATION
===============================

### Backend Architecture:

**Database Schema (PostgreSQL):**

**Goals Table:**
```sql
CREATE TABLE goals (
  id SERIAL PRIMARY KEY,
  website_id VARCHAR(255) NOT NULL,
  user_id INTEGER REFERENCES users(id),
  name VARCHAR(255) NOT NULL,
  description TEXT,
  goal_type VARCHAR(50) NOT NULL,
  conditions JSONB NOT NULL,
  value DECIMAL(10,2) DEFAULT 0,
  is_active BOOLEAN DEFAULT true,
  created_at TIMESTAMP DEFAULT NOW(),
  updated_at TIMESTAMP DEFAULT NOW()
);
```

**Conversions Table:**
```sql
CREATE TABLE conversions (
  id SERIAL PRIMARY KEY,
  goal_id INTEGER REFERENCES goals(id),
  session_id VARCHAR(255) NOT NULL,
  website_id VARCHAR(255) NOT NULL,
  page_url TEXT NOT NULL,
  timestamp TIMESTAMP DEFAULT NOW(),
  value DECIMAL(10,2) DEFAULT 0,
  user_data JSONB,
  metadata JSONB
);
```

**Indexes for Performance:**
```sql
CREATE INDEX idx_goals_website_user ON goals(website_id, user_id);
CREATE INDEX idx_goals_active ON goals(is_active);
CREATE INDEX idx_conversions_goal ON conversions(goal_id);
CREATE INDEX idx_conversions_session ON conversions(session_id);
CREATE INDEX idx_conversions_timestamp ON conversions(timestamp);
```

### Frontend Architecture:

**React Components Structure:**
```
pages/
├── goals.js                 # Main goals management page
├── goal-conversions.js      # Conversion viewing page

components/
├── GoalConversions.js       # Conversion table component
├── DashboardLayout.js       # Page layout wrapper
├── icons/
│   └── index.js            # SVG icon components

utils/
├── api.js                   # API client with goals methods
└── helpers.js              # Utility functions

styles/
└── dashboard.css           # Complete styling system
```

**State Management:**
- React hooks for local state
- useEffect for data fetching
- useState for form management
- Real-time updates via API polling

**API Integration:**
- Axios-based HTTP client
- Authentication token handling
- Error handling and retry logic
- Request/response interceptors

### Tracking Script Integration:

**JavaScript Tracking Code:**
```javascript
// Goal conversion tracking
function trackGoalConversion(goalId, value = 0) {
  window.analyticsQueue = window.analyticsQueue || [];
  window.analyticsQueue.push({
    type: 'goal_conversion',
    goal_id: goalId,
    value: value,
    timestamp: Date.now(),
    page_url: window.location.href
  });
}

// Automatic goal detection
function checkGoalConditions() {
  // URL destination goals
  if (window.urlDestinationGoals) {
    window.urlDestinationGoals.forEach(goal => {
      if (matchesUrlCondition(goal.conditions, window.location.href)) {
        trackGoalConversion(goal.id, goal.value);
      }
    });
  }
  
  // Event tracking goals
  document.addEventListener('click', (e) => {
    if (window.clickGoals) {
      window.clickGoals.forEach(goal => {
        if (e.target.matches(goal.conditions.selector)) {
          trackGoalConversion(goal.id, goal.value);
        }
      });
    }
  });
}
```

### Security Implementation:

**Authentication & Authorization:**
- JWT token-based authentication
- User-specific goal access control
- Website ownership verification
- API rate limiting

**Data Protection:**
- SQL injection prevention
- XSS protection
- CSRF token validation
- Input sanitization and validation

**Privacy Compliance:**
- IP address anonymization options
- User consent tracking
- Data retention policies
- GDPR compliance features

===============================================================================

🛠️ 10. TROUBLESHOOTING & FAQ
=============================

### Common Issues & Solutions:

**Q: Goals are not recording conversions**
A: Check the following:
1. Tracking script is properly installed on website
2. Website ID matches between goal and tracking script
3. Goal conditions are correctly configured
4. JavaScript is enabled in user browsers
5. Network connectivity to analytics server

**Q: Conversion rates seem incorrect**
A: Verify:
1. Goal conditions match actual user behavior
2. No duplicate goal triggers in same session
3. Tracking script is not double-installed
4. Time zone settings are consistent
5. Date range in analytics matches expectations

**Q: Cannot create goals - API errors**
A: Troubleshoot:
1. User authentication token is valid
2. User has access to the specified website
3. Goal data format matches API requirements
4. Database connection is active
5. Check server logs for detailed error messages

**Q: Dropdown menus not working properly**
A: Ensure:
1. CSS is properly loaded
2. JavaScript is enabled
3. Browser compatibility (modern browsers only)
4. No conflicting styles from other frameworks

**Q: Conversion data not displaying**
A: Check:
1. Database contains conversion records
2. API endpoints are responding correctly
3. Frontend pagination is working
4. Network requests are successful
5. Date filters are not excluding data

### Debug Mode:

**Enable Debug Logging:**
```javascript
// Add to tracking script
window.analyticsDebug = true;

// This will log all goal tracking events to console
```

**Backend Debugging:**
```javascript
// Enable in server.js
process.env.DEBUG_GOALS = 'true';

// This will log all goal-related API calls
```

**Database Queries for Debugging:**
```sql
-- Check goal configuration
SELECT * FROM goals WHERE website_id = 'your_website_id';

-- Check recent conversions
SELECT * FROM conversions 
WHERE goal_id = 'your_goal_id' 
ORDER BY timestamp DESC 
LIMIT 10;

-- Check conversion rates
SELECT 
  g.name,
  COUNT(c.id) as conversion_count,
  SUM(c.value) as total_value
FROM goals g
LEFT JOIN conversions c ON g.id = c.goal_id
WHERE g.website_id = 'your_website_id'
GROUP BY g.id, g.name;
```

### Performance Optimization:

**Frontend Performance:**
- Implement virtual scrolling for large conversion lists
- Add caching for goal data
- Optimize API calls with debouncing
- Use React.memo for expensive components

**Backend Performance:**
- Add database indexes on frequently queried columns
- Implement Redis caching for conversion rates
- Use database connection pooling
- Optimize SQL queries with proper joins

**Tracking Script Performance:**
- Minimize JavaScript bundle size
- Use asynchronous loading
- Implement request batching
- Add local storage caching

===============================================================================

💼 11. BUSINESS VALUE & USE CASES
=================================

### E-commerce Applications:

**Purchase Tracking:**
- Track completed orders
- Measure conversion rates by product
- Calculate average order value
- Monitor checkout abandonment

**Lead Generation:**
- Track newsletter signups
- Measure form completion rates
- Calculate cost per lead
- Monitor lead quality

**Customer Engagement:**
- Track product page views
- Measure content engagement
- Monitor video completion rates
- Track social media interactions

### SaaS Business Applications:

**Trial Conversions:**
- Track free trial signups
- Measure trial-to-paid conversion
- Monitor feature usage during trial
- Calculate customer acquisition cost

**User Onboarding:**
- Track onboarding completion
- Measure time to first value
- Monitor feature adoption
- Track user activation events

**Subscription Tracking:**
- Monitor subscription upgrades
- Track feature usage by plan
- Measure retention rates
- Calculate lifetime value

### Content & Media Applications:

**Content Engagement:**
- Track article reading completion
- Measure video watch time
- Monitor download completions
- Track social sharing

**Subscription Growth:**
- Track newsletter signups
- Measure content conversion rates
- Monitor premium upgrades
- Calculate subscriber value

### Marketing Campaign Optimization:

**Campaign Performance:**
- Track conversion by traffic source
- Measure ad campaign effectiveness
- Calculate return on ad spend (ROAS)
- Monitor landing page performance

**A/B Testing:**
- Compare conversion rates between variants
- Measure statistical significance
- Track user behavior differences
- Optimize based on conversion data

### ROI Calculation Examples:

**E-commerce Example:**
```
Goal: Purchase Completed
Average Order Value: $75
Monthly Conversions: 150
Monthly Revenue from Goals: $11,250
Marketing Spend: $3,000
ROI: 275%
```

**SaaS Example:**
```
Goal: Trial Signup
Trial-to-Paid Rate: 15%
Monthly Trial Conversions: 500
Monthly Paid Conversions: 75
Average Customer LTV: $1,200
Monthly Revenue from Goals: $90,000
Marketing Spend: $25,000
ROI: 260%
```

===============================================================================

🚀 12. FUTURE ENHANCEMENTS
===========================

### Planned Features (Next 3 Months):

**Advanced Analytics:**
- Funnel analysis integration
- Cohort analysis for goal completions
- A/B testing framework
- Predictive conversion modeling

**Enhanced Tracking:**
- Cross-device conversion tracking
- Mobile app SDK integration
- Offline conversion imports
- Custom event tracking

**Automation Features:**
- Automated goal creation suggestions
- Smart alerts for conversion drops
- Email notifications for milestones
- Slack integration for team updates

**Reporting Enhancements:**
- Custom dashboard widgets
- Scheduled email reports
- PDF report generation
- Data export functionality

### Advanced Features (Next 6 Months):

**AI-Powered Insights:**
- Conversion prediction models
- Anomaly detection for goals
- Automated optimization suggestions
- Natural language insights

**Enterprise Features:**
- Team collaboration tools
- Role-based access control
- Audit logs for goal changes
- Multi-workspace support

**Integration Capabilities:**
- Google Analytics import/export
- CRM integration (Salesforce, HubSpot)
- Marketing automation tools
- Webhook notifications

**Advanced Goal Types:**
- Revenue-based goals
- Engagement score goals
- Custom JavaScript goals
- Time-based recurring goals

### Scalability Improvements:

**Performance Optimizations:**
- Real-time data processing
- Event streaming architecture
- Distributed caching layer
- Database sharding support

**Infrastructure Enhancements:**
- Kubernetes deployment
- Auto-scaling capabilities
- Global CDN integration
- Edge computing for tracking

===============================================================================

📝 CONCLUSION
==============

The Goals & Conversion Tracking system represents a comprehensive solution for 
measuring website effectiveness and business performance. With its robust backend 
API, intuitive frontend interface, and flexible goal configuration options, it 
provides everything needed to track, analyze, and optimize conversion rates.

**Key Benefits:**
✅ Complete visibility into user conversion behavior
✅ Data-driven decision making capabilities
✅ ROI tracking and business value measurement
✅ Scalable architecture for growing businesses
✅ Professional, modern user interface

**Getting Started:**
1. Ensure your tracking script is installed
2. Create your first goal using the dashboard
3. Monitor conversions in real-time
4. Analyze performance and optimize accordingly

**Support & Documentation:**
- API documentation: /api/docs
- Frontend component docs: /docs/components
- Troubleshooting guide: /docs/troubleshooting
- Video tutorials: /docs/tutorials

For technical support or feature requests, please refer to the main project 
documentation or contact the development team.

===============================================================================

Last Updated: October 25, 2025
Version: 1.0.0
Documentation Status: Complete
Next Review: November 25, 2025